,Candidates,Iters,Scores
0,JWNNESULWQETPVGY,0,0.25
1,J NNESULWQETPVGY,1,0.25
2,AQINYN OHZESTSAH,2,0.3125
3,AQINYN OHZGSVSAH,3,0.25
4,AQINYN OAZGSLSAH,4,0.3125
5,AQINUN OAIGSLSAH,5,0.3125
6,AQINSN OACGSLSAU,6,0.3125
7,AQINBN OACGSDSAU,7,0.3125
8,AQINBN OACGSNSAT,8,0.3125
9,TAWZCS CACBSKFYL,9,0.25
10,TAWZC  CACYSKFYL,10,0.25
11,MZ GYS MXPSEMQJN,11,0.25
12,MZ GYS MXBSEDMUN,12,0.3125
13,BMNFRI OWKTUFCTN,13,0.25
14,TANIXB CACYSKFYL,14,0.3125
15,TANFXB CACYSKVYL,15,0.3125
16,XAYQT  CACVSKFQX,16,0.25
17,TAOQT  CACISUFUN,17,0.3125
18,HVUGMG MZJASBPAN,18,0.3125
19,HVFGMG MZJESBPAN,19,0.375
20,MANNQROVAWJKJMFO,20,0.4375
21,MANNZRHVAWJKJMFO,21,0.4375
22,MHNNZRHVAWJKJMFO,22,0.375
23,KPYNBRRCJ ESSMVN,23,0.375
24,MWN ERDMDDJKVMFU,24,0.375
25,KPMNHRRCJ ESSMVN,25,0.375
26,EVVNHT MELENECAN,26,0.375
27,TANPXR PZBIS EJQ,27,0.375
28,TANPER MYBISJEJQ,28,0.4375
29,IPRNTRZCSK S MQT,29,0.375
30,JANLER MYBIWJHAZ,30,0.4375
31,JANNEROMWBIWKZRN,31,0.4375
32,YANLEG MYBEWJHAL,32,0.4375
33,FANNEROMVBEVDTRN,33,0.5
34,FANNEROMSBEQRTRG,34,0.4375
35,KANNER MSBEQRTRG,35,0.5
36,KANNER MSBEURTRF,36,0.5
37,MAFNEKSL DCSDMU ,37,0.375
38,DANNEE NSBEQLMRX,38,0.4375
39,MAZNSRUMZKSWNSPN,39,0.4375
40,MANNSRUMZKEWNSPN,40,0.5625
41,MANNSRUMZKEWNUPN,41,0.5625
42,MAXNSRUMZKEWNUPN,42,0.5
43,MAXNSRUMZKEWNEEN,43,0.5
44,QAZUHRXMSNOSWMAN,44,0.4375
45,MD NUR MFCEEUAXT,45,0.375
46,PANFFR SWZESU AP,46,0.4375
47,MAXREE MRBEU XQP,47,0.4375
48,MAXREE MRHEU MQP,48,0.5
49,MAXREE MWQES XQP,49,0.5
50,GAIGERDIXKOS OAN,50,0.5
51,GAIGERDIXKOS MAW,51,0.5
52,MRONERVMOKGSNMJN,52,0.5625
53,MRONERVMOKZSNMJN,53,0.5625
54,FANNVCDMVKESEMAN,54,0.625
55,FANNVUDMVKESEMAN,55,0.625
56,FANNSUDMVKESEMAN,56,0.625
57,MAINVC MDKESEMAT,57,0.625
58,MAUNERPSANFS MKJ,58,0.5625
59,FANNVR MOKTIEUAN,59,0.5625
60,MAONUR MWKOSRMKI,60,0.5625
61,MAIUER MQWESOVEN,61,0.5625
62,MAIUER MQWESOMEN,62,0.625
63,CATNEE MOKESPTXN,63,0.5625
64,MAIUER MQWWSMMUN,64,0.5625
65,MAONEW MPKESRMAJ,65,0.6875
66,CATNPR MYKESPTXN,66,0.5625
67,GQENER MDKHSMMEN,67,0.5625
68,IANNER OJKESTTAW,68,0.625
69,IANNER MJKERTTAW,69,0.625
70,LLKNER MRSES MAT,70,0.625
71,LLKNER MFSES MAT,71,0.625
72,FATUER MYKES MMN,72,0.6875
73,LLDNER MRQES MAN,73,0.6875
74,HAKNER MRKE  MEN,74,0.6875
75,M GNER MHKEQMMAN,75,0.6875
76,HAFNER MRKES MEN,76,0.75
77,MAFNER MRKE  MAN,77,0.8125
78,MUGNERIMAKESMMAN,78,0.75
79,FAHNER MYQES CAN,79,0.6875
80,MATNER MYKESOCEN,80,0.6875
81,MATNER MYKESOCMN,81,0.6875
82,MAONER MRKMV MFN,82,0.6875
83,MAFNER MWKZS MTN,83,0.75
84,MAFNERNMWKDS MTN,84,0.6875
85,MANNQI MYKESPMAN,85,0.75
86,MANNQR MYKESPMAN,86,0.8125
87,MANNPRVMRKESPMAN,87,0.75
88,MANNPR MRKELPMAN,88,0.75
89,MANNERVMRKQSPMUN,89,0.6875
90,RYINER MYKESPMAN,90,0.6875
91,SYFNER MRKES MAN,91,0.75
92,SAFNER MRKES MAN,92,0.8125
93,MAFNERQMRKES MAN,93,0.8125
94,MTNNER MEKEA MSN,94,0.75
95,MTNNER MEKE  MSN,95,0.75
96,MA NER MZKTSQMAN,96,0.75
97,BANNER MPSXB MRN,97,0.625
98,QATNER MXK S MAN,98,0.75
99,BAJNER KAUES CAN,99,0.6875
100,MANDER MASKS MAN,100,0.8125
101,MANDER MASKSMMAN,101,0.75
102,MABDER MASKS MAN,102,0.75
103,LAFNER MRKLS MAN,103,0.75
104,MABNER MASKS MAN,104,0.8125
105,MAWNER MBJVS MAN,105,0.75
106,MAFNERWMWKLS MQN,106,0.6875
107,MAWNER MAJVB MAN,107,0.75
108,DA NQR MAKOB MAN,108,0.6875
109,AAJEER MADES MAN,109,0.75
110,AAJNER MDDES MAN,110,0.75
111,MAWNER MBJOR MAN,111,0.6875
112,MAWNER MAKVB GDN,112,0.6875
113,MAWNER MAKVB MIN,113,0.75
114,MAWNER MAKVS MDN,114,0.8125
115,MAWNER MAKVS MDN,115,0.8125
116,MACCER MAKESBMAN,116,0.8125
117,MAWNER MAKLS MDN,117,0.8125
118,MAICER MJKESSMAN,118,0.75
119,MAJNAA MAKESYMAN,119,0.75
120,MALNER MAKEYMMAN,120,0.8125
121,MAWVER MXKES MLN,121,0.75
122,MATNAA KAKES MAN,122,0.75
123,M SNER MAKYS MAN,123,0.8125
124,MODNER MAKZS MAN,124,0.8125
125,M JNER MAKYS MAN,125,0.8125
126,MADNER MAKES MAN,126,0.9375
127,MADNER MAKES MAN,127,0.9375
128,MADNER MAKES MAN,128,0.9375
129,MADNER MAKES MAN,129,0.9375
130,MADNEO MAKES MAN,130,0.875
131,MAJNER MAKEG MAN,131,0.875
132,MAUNEX MAKES MAN,132,0.875
133,MZJNEX MAKES MAN,133,0.8125
134,MADNUO MAKES MJN,134,0.75
135,MAZNER CWKES MAN,135,0.8125
136,MONNER MH ES MAN,136,0.8125
137,MANSER MH ES MAN,137,0.8125
138,MAZNER MAKXS MAN,138,0.875
139,WAJNER MAKES MAN,139,0.875
140,MANNER MJ ES MAN,140,0.875
141,MAZNEO MAKES MAN,141,0.875
142,MAZNEO MAKES MAN,142,0.875
143,MANNER MAKES MXN,143,0.9375
144,MANNER MAKES MXN,144,0.9375
145,MZENER MAKES MRN,145,0.8125
146,MAJNER MAMPS MAN,146,0.8125
147,MATNER MNKES MAD,147,0.8125
148,MAJNER MAVXS MAN,148,0.8125
149,MAZNER MAKNS CAN,149,0.8125
150,MACNER MAKWS MAX,150,0.8125
151,MACNER MAKVS MAX,151,0.8125
152,FAZNER MAKES MAN,152,0.875
153,MACNER MAKNS MAX,153,0.8125
154,MAANER MAKLP MAN,154,0.8125
155,MARNER MABES MAU,155,0.8125
156,MAONER MAYES MRN,156,0.8125
157,MANNER MAKVS MAC,157,0.875
158,MANNER MAKRS MAC,158,0.875
159,MACNER MAKRS MAC,159,0.8125
160,MAWNER MAKHSZMAN,160,0.8125
161,MANNEU MAKESIMAV,161,0.8125
162,MANNSR MGKES JAN,162,0.8125
163,MANNVR MAKRS MAP,163,0.8125
164,KANNEU MOKESKMAN,164,0.75
165,MADNEK XAKEJ MAN,165,0.75
166,MANNAR MAKESIMAC,166,0.8125
167,MA NER MAKESIMBN,167,0.8125
168,MA NER MAKES MBN,168,0.875
169,MA NER MAKES MBN,169,0.875
170,MA NZR MAKES MAN,170,0.875
171,MAZNZR MAKES MAN,171,0.875
172,MDNNER MAKSS MBN,172,0.8125
173,MAONER MAKEM MAN,173,0.875
174,MARNER MAKESIMAN,174,0.875
175,MAFNER MAKESIMAN,175,0.875
176,MARNER MGKES MAN,176,0.875
177,MANNSR MPKES MAN,177,0.875
178,MANNSR MPKESVMAN,178,0.8125
179,MANNER MAXEQEMAN,179,0.8125
180,MANNHR MGKEX MAN,180,0.8125
181,MANNHR MAKEX MAN,181,0.875
182,MAGNER MAKES MAN,182,0.9375
183,MANNHP MAKEX MAN,183,0.8125
184,MA NER MAKES BAC,184,0.8125
185,MANNOR MAAVS MAN,185,0.8125
186,MAUNOR MAKVS MAN,186,0.8125
187,MANNEG MAKES BAE,187,0.8125
188,MANNERLMAKESMTAN,188,0.8125
189,MSNMEU MAKEF MAN,189,0.75
190,MWNNER WAKESMMAN,190,0.8125
191,MBNNER MGKESOMAN,191,0.8125
192,MWNNER WAKESMMAN,192,0.8125
193,MANNER MAKIF MPN,193,0.8125
194,MANNER MAKII MPN,194,0.8125
195,MYNJLR MAKES MAN,195,0.8125
196,MANJLRRMAKES MAN,196,0.8125
197,MYNNERRMAKES MAN,197,0.875
198,MYNNER MAKES MAN,198,0.9375
199,MANNLRRMAKES MAN,199,0.875
200,MANNLRRMAKEM MAN,200,0.8125
201,MA NER MAKES MQ ,201,0.8125
202,MAENER MAKZSGMAN,202,0.8125
203,MANNERSMAKDSGM N,203,0.75
204,MAENER MAKSSGMAN,204,0.8125
205,MANNKR WAKESDMAN,205,0.8125
206,MANNKR MAKESDMAZ,206,0.8125
207,MANNKG MAKESDMAZ,207,0.75
208,MANNERPMAKESNVAZ,208,0.75
209,MARIHR MAKNS MAN,209,0.75
210,MPNNMG MAKESBMAN,210,0.75
211,HANDHR MAKNS MAN,211,0.75
212,HANDHR MAKNS MAN,212,0.75
213,HANAQR MAKES MAN,213,0.8125
214,MANDLR MAKNS MAN,214,0.8125
215,MAENER MAKASQMAN,215,0.8125
216,MAENE  MAKAS MAN,216,0.8125
217,MAFNER MAKMS MAN,217,0.875
218,MANNER MAKIS MAN,218,0.9375
219,MTNNER MAKIS MAN,219,0.875
220,MTNNERRMAKES MAN,220,0.875
221,XANNQR MAKBS MAN,221,0.8125
222,XANNQR MAKES MAN,222,0.875
223,XANNHR MAKES MAN,223,0.875
224,HANJER MAKES MAN,224,0.875
225,HANEHR MAKES MAN,225,0.8125
226,MANCHR MAKES MPN,226,0.8125
227,MANNHG MAKUS MAN,227,0.8125
228,MANNHR QAKUS MAN,228,0.8125
229,MANNHR MWKESUMAN,229,0.8125
230,HANNHR MAKAS MAN,230,0.8125
231,TANNER MAKES MAG,231,0.875
232,MANNHR IAKUS MAN,232,0.8125
233,TANNHR MAKES MAG,233,0.8125
234,MANNER KALES MAW,234,0.8125
235,MOPNER MAKES MAN,235,0.875
236,MANNER MALES MAW,236,0.875
237,MANDHR MAKES MAN,237,0.875
238,TANMEX MAKES MAN,238,0.8125
239,WANMEX MAKES MAN,239,0.8125
240,OANMEJ MAKES MAN,240,0.8125
241,MANNEJ MAKES MAN,241,0.9375
242,MANNER PAKES MAP,242,0.875
243,MANNER PAKES MAP,243,0.875
244,MANNEREVAKES MAN,244,0.875
245,MANNEREMAKES MAN,245,0.9375
246,MANNECEMAKES MAN,246,0.875
247,MANNER MAKUS MAP,247,0.875
248,MANNER MAKES MGZ,248,0.875
249,MANNER MAKES MAZ,249,0.9375
250,CANNERJMAKES MAN,250,0.875
251,MAONER MAUES AAN,251,0.8125
252,CANNER MYKES MAN,252,0.875
253,CANN R MAKES MAN,253,0.875
254,RAKNER MAKESCMAN,254,0.8125
255,MANNEV MYKES UAN,255,0.8125
256,MANNEV MYKES UAN,256,0.8125
257,MANNER NFKES MRN,257,0.8125
258,MANNJRVMAKES MAN,258,0.875
259,MANNLR MAKES MAN,259,0.9375
260,MANNJRVMAKESEMAN,260,0.8125
261,GANNER PAKES MRN,261,0.8125
262,MANNKRVMAKES MAN,262,0.875
263,CANNEX MAKGS MAP,263,0.75
264,MANNER MAKES IAO,264,0.875
265,MANNEV MAKES IAO,265,0.8125
266,MANNEO MAKED UAM,266,0.75
267,MANNER MAKESEMAW,267,0.875
268,MANNER MAKES MGN,268,0.9375
269,MANNER MAKES MAN,269,1.0
